{
  "file_generated_by": "FlutterFire CLI",
  "purpose": "FirebaseAppID & ProjectID for this Firebase app in this directory",
  "GOOGLE_APP_ID": "1:438320807690:ios:6aa1b039a6182ad42b04f3",
  "FIREBASE_PROJECT_ID": "doctoshlag",
  "GCM_SENDER_ID": "438320807690"
}